simulation/qsim/PlacaDeInduccion.msim.vcd
$comment
	File created using the following command:
		vcd file PlacaDeInduccion.msim.vcd -direction
$end
$date
	Wed Jan 10 21:33:39 2024
$end
$version
	ModelSim Version 10.1d
$end
$timescale
	1ps
$end
$scope module PlacaDeInduccion_vlg_vec_tst $end
$var reg 1 ! clk $end
$var reg 1 " DIN1 $end
$var reg 1 # DIN2 $end
$var reg 1 $ DIN3 $end
$var reg 1 % Encendido $end
$var reg 1 & K0 $end
$var reg 1 ' K1 $end
$var wire 1 ( inte [31] $end
$var wire 1 ) inte [30] $end
$var wire 1 * inte [29] $end
$var wire 1 + inte [28] $end
$var wire 1 , inte [27] $end
$var wire 1 - inte [26] $end
$var wire 1 . inte [25] $end
$var wire 1 / inte [24] $end
$var wire 1 0 inte [23] $end
$var wire 1 1 inte [22] $end
$var wire 1 2 inte [21] $end
$var wire 1 3 inte [20] $end
$var wire 1 4 inte [19] $end
$var wire 1 5 inte [18] $end
$var wire 1 6 inte [17] $end
$var wire 1 7 inte [16] $end
$var wire 1 8 inte [15] $end
$var wire 1 9 inte [14] $end
$var wire 1 : inte [13] $end
$var wire 1 ; inte [12] $end
$var wire 1 < inte [11] $end
$var wire 1 = inte [10] $end
$var wire 1 > inte [9] $end
$var wire 1 ? inte [8] $end
$var wire 1 @ inte [7] $end
$var wire 1 A inte [6] $end
$var wire 1 B inte [5] $end
$var wire 1 C inte [4] $end
$var wire 1 D inte [3] $end
$var wire 1 E inte [2] $end
$var wire 1 F inte [1] $end
$var wire 1 G inte [0] $end
$var wire 1 H LEDS [7] $end
$var wire 1 I LEDS [6] $end
$var wire 1 J LEDS [5] $end
$var wire 1 K LEDS [4] $end
$var wire 1 L LEDS [3] $end
$var wire 1 M LEDS [2] $end
$var wire 1 N LEDS [1] $end
$var wire 1 O LEDS [0] $end
$var wire 1 P sal_s1 [3] $end
$var wire 1 Q sal_s1 [2] $end
$var wire 1 R sal_s1 [1] $end
$var wire 1 S sal_s1 [0] $end
$var wire 1 T sampler $end
$scope module i1 $end
$var wire 1 U gnd $end
$var wire 1 V vcc $end
$var wire 1 W unknown $end
$var tri1 1 X devclrn $end
$var tri1 1 Y devpor $end
$var tri1 1 Z devoe $end
$var wire 1 [ inst11|cuenta[1]~4_combout $end
$var wire 1 \ inst6|Equal1~2_combout $end
$var wire 1 ] inst6|Equal1~3_combout $end
$var wire 1 ^ inst6|Equal1~5_combout $end
$var wire 1 _ inst7|Equal0~2_combout $end
$var wire 1 ` inst7|Equal1~2_combout $end
$var wire 1 a inst7|Equal1~3_combout $end
$var wire 1 b inst7|Equal1~4_combout $end
$var wire 1 c inst7|salida_variable~0_combout $end
$var wire 1 d inst10|maquina:un_minuto[0]~q $end
$var wire 1 e inst10|Salida_Tiempo1~4_combout $end
$var wire 1 f inst10|Salida_Tiempo2~1_combout $end
$var wire 1 g inst10|Add2~1_combout $end
$var wire 1 h inst10|un_minuto~7_combout $end
$var wire 1 i inst10|Salida_Tiempo3~4_combout $end
$var wire 1 j inst6|Mux0~0_combout $end
$var wire 1 k inst6|vector_temporal[0]~0_combout $end
$var wire 1 l inst7|Mux0~0_combout $end
$var wire 1 m inst7|vector_temporal[0]~0_combout $end
$var wire 1 n inst7|Add1~0_combout $end
$var wire 1 o inst7|contador_reg~4_combout $end
$var wire 1 p inst7|contador_reg~5_combout $end
$var wire 1 q inst8|contador_reg~0_combout $end
$var wire 1 r inst8|contador_reg~3_combout $end
$var wire 1 s inst10|un_minuto~9_combout $end
$var wire 1 t inst10|un_minuto~11_combout $end
$var wire 1 u inst6|indice[1]~0_combout $end
$var wire 1 v inst6|indice[2]~1_combout $end
$var wire 1 w inst6|indice[3]~2_combout $end
$var wire 1 x inst6|indice[3]~3_combout $end
$var wire 1 y inst7|indice[1]~0_combout $end
$var wire 1 z inst7|indice[2]~1_combout $end
$var wire 1 { inst7|indice[3]~2_combout $end
$var wire 1 | inst7|indice[3]~3_combout $end
$var wire 1 } inst8|indice[3]~3_combout $end
$var wire 1 ~ inst7|Equal0~3_combout $end
$var wire 1 !! inst7|Equal1~5_combout $end
$var wire 1 "! inst7|contador_reg~6_combout $end
$var wire 1 #! inst7|contador_reg~7_combout $end
$var wire 1 $! inst6|indice[0]~4_combout $end
$var wire 1 %! inst7|indice[0]~4_combout $end
$var wire 1 &! K0~input_o $end
$var wire 1 '! K1~input_o $end
$var wire 1 (! clk~input_o $end
$var wire 1 )! K0~inputclkctrl_outclk $end
$var wire 1 *! K1~inputclkctrl_outclk $end
$var wire 1 +! clk~inputclkctrl_outclk $end
$var wire 1 ,! inte[31]~output_o $end
$var wire 1 -! inte[30]~output_o $end
$var wire 1 .! inte[29]~output_o $end
$var wire 1 /! inte[28]~output_o $end
$var wire 1 0! inte[27]~output_o $end
$var wire 1 1! inte[26]~output_o $end
$var wire 1 2! inte[25]~output_o $end
$var wire 1 3! inte[24]~output_o $end
$var wire 1 4! inte[23]~output_o $end
$var wire 1 5! inte[22]~output_o $end
$var wire 1 6! inte[21]~output_o $end
$var wire 1 7! inte[20]~output_o $end
$var wire 1 8! inte[19]~output_o $end
$var wire 1 9! inte[18]~output_o $end
$var wire 1 :! inte[17]~output_o $end
$var wire 1 ;! inte[16]~output_o $end
$var wire 1 <! inte[15]~output_o $end
$var wire 1 =! inte[14]~output_o $end
$var wire 1 >! inte[13]~output_o $end
$var wire 1 ?! inte[12]~output_o $end
$var wire 1 @! inte[11]~output_o $end
$var wire 1 A! inte[10]~output_o $end
$var wire 1 B! inte[9]~output_o $end
$var wire 1 C! inte[8]~output_o $end
$var wire 1 D! inte[7]~output_o $end
$var wire 1 E! inte[6]~output_o $end
$var wire 1 F! inte[5]~output_o $end
$var wire 1 G! inte[4]~output_o $end
$var wire 1 H! inte[3]~output_o $end
$var wire 1 I! inte[2]~output_o $end
$var wire 1 J! inte[1]~output_o $end
$var wire 1 K! inte[0]~output_o $end
$var wire 1 L! LEDS[7]~output_o $end
$var wire 1 M! LEDS[6]~output_o $end
$var wire 1 N! LEDS[5]~output_o $end
$var wire 1 O! LEDS[4]~output_o $end
$var wire 1 P! LEDS[3]~output_o $end
$var wire 1 Q! LEDS[2]~output_o $end
$var wire 1 R! LEDS[1]~output_o $end
$var wire 1 S! LEDS[0]~output_o $end
$var wire 1 T! sal_s1[3]~output_o $end
$var wire 1 U! sal_s1[2]~output_o $end
$var wire 1 V! sal_s1[1]~output_o $end
$var wire 1 W! sal_s1[0]~output_o $end
$var wire 1 X! inst4|potencia_presente.potencia2~q $end
$var wire 1 Y! inst4|potencia_presente.potencia3~q $end
$var wire 1 Z! inst4|potencia_presente.potencia0~0_combout $end
$var wire 1 [! inst4|potencia_presente.potencia0~q $end
$var wire 1 \! inst4|potencia_presente.potencia1~0_combout $end
$var wire 1 ]! inst4|potencia_presente.potencia1~q $end
$var wire 1 ^! DIN3~input_o $end
$var wire 1 _! Encendido~input_o $end
$var wire 1 `! inst1|presente.zona0~0_combout $end
$var wire 1 a! inst1|presente.zona0~q $end
$var wire 1 b! inst1|presente.zona1~0_combout $end
$var wire 1 c! inst1|presente.zona1~q $end
$var wire 1 d! inst1|presente.zona2~feeder_combout $end
$var wire 1 e! inst1|presente.zona2~q $end
$var wire 1 f! inst1|presente.zona3~q $end
$var wire 1 g! inst2|Z3[0]~0_combout $end
$var wire 1 h! inst5|Mux3~27_combout $end
$var wire 1 i! inst5|Mux3~28_combout $end
$var wire 1 j! inst4|Salida_Potencia1~4_combout $end
$var wire 1 k! inst4|Salida_Potencia3[1]~4_combout $end
$var wire 1 l! inst5|Mux3~29_combout $end
$var wire 1 m! DIN2~input_o $end
$var wire 1 n! inst2|Z2[1]~0_combout $end
$var wire 1 o! inst2|Z3[1]~1_combout $end
$var wire 1 p! inst10|un_minuto~8_combout $end
$var wire 1 q! inst10|maquina:un_minuto[3]~q $end
$var wire 1 r! DIN1~input_o $end
$var wire 1 s! inst2|Z1[1]~0_combout $end
$var wire 1 t! inst10|Add2~0_combout $end
$var wire 1 u! inst10|un_minuto~10_combout $end
$var wire 1 v! inst10|maquina:un_minuto[2]~q $end
$var wire 1 w! inst10|un_minuto~4_combout $end
$var wire 1 x! inst10|Add1~0_combout $end
$var wire 1 y! inst10|un_minuto~13_combout $end
$var wire 1 z! inst10|un_minuto~12_combout $end
$var wire 1 {! inst10|maquina:un_minuto[1]~q $end
$var wire 1 |! inst10|Salida_Tiempo1~5_combout $end
$var wire 1 }! inst10|Salida_Tiempo1~3_combout $end
$var wire 1 ~! inst10|Salida_Tiempo1~2_combout $end
$var wire 1 !" inst11|Equal1~0_combout $end
$var wire 1 "" inst11|cuenta[3]~2_combout $end
$var wire 1 #" inst11|cuenta[3]~reg0_q $end
$var wire 1 $" inst11|cuenta[1]~0_combout $end
$var wire 1 %" inst11|cuenta[0]~1_combout $end
$var wire 1 &" inst11|cuenta[0]~reg0_q $end
$var wire 1 '" inst11|cuenta[1]~5_combout $end
$var wire 1 (" inst11|cuenta[1]~reg0_q $end
$var wire 1 )" inst11|Equal1~1_combout $end
$var wire 1 *" inst11|cuenta[2]~3_combout $end
$var wire 1 +" inst11|cuenta[2]~reg0_q $end
$var wire 1 ," inst9|Equal3~0_combout $end
$var wire 1 -" inst10|un_minuto~6_combout $end
$var wire 1 ." inst10|Salida_Tiempo3~3_combout $end
$var wire 1 /" inst13|Equal1~1_combout $end
$var wire 1 0" inst10|Salida_Tiempo3~2_combout $end
$var wire 1 1" inst10|Salida_Tiempo3~5_combout $end
$var wire 1 2" inst13|cuenta[2]~4_combout $end
$var wire 1 3" inst13|cuenta[2]~reg0_q $end
$var wire 1 4" inst13|Equal1~0_combout $end
$var wire 1 5" inst13|cuenta[3]~5_combout $end
$var wire 1 6" inst13|cuenta[3]~reg0_q $end
$var wire 1 7" inst13|cuenta[1]~2_combout $end
$var wire 1 8" inst13|cuenta[1]~3_combout $end
$var wire 1 9" inst13|cuenta[1]~reg0_q $end
$var wire 1 :" inst13|cuenta[1]~0_combout $end
$var wire 1 ;" inst13|cuenta[0]~1_combout $end
$var wire 1 <" inst13|cuenta[0]~reg0_q $end
$var wire 1 =" inst10|Add0~0_combout $end
$var wire 1 >" inst10|un_minuto~5_combout $end
$var wire 1 ?" inst10|Salida_Tiempo2~3_combout $end
$var wire 1 @" inst10|Salida_Tiempo2~2_combout $end
$var wire 1 A" inst12|Equal1~1_combout $end
$var wire 1 B" inst12|cuenta[2]~3_combout $end
$var wire 1 C" inst12|cuenta[2]~reg0_q $end
$var wire 1 D" inst10|Salida_Tiempo2~0_combout $end
$var wire 1 E" inst12|cuenta[3]~2_combout $end
$var wire 1 F" inst12|cuenta[3]~reg0_q $end
$var wire 1 G" inst12|Equal1~0_combout $end
$var wire 1 H" inst12|cuenta[1]~0_combout $end
$var wire 1 I" inst12|cuenta[0]~1_combout $end
$var wire 1 J" inst12|cuenta[0]~reg0_q $end
$var wire 1 K" inst9|salida[3]~0_combout $end
$var wire 1 L" inst8|indice[0]~4_combout $end
$var wire 1 M" inst5|Mux3~26_combout $end
$var wire 1 N" inst4|Salida_Potencia1~3_combout $end
$var wire 1 O" inst8|Equal1~0_combout $end
$var wire 1 P" inst8|contador_reg~1_combout $end
$var wire 1 Q" inst8|Add1~0_combout $end
$var wire 1 R" inst8|contador_reg~2_combout $end
$var wire 1 S" inst8|Equal1~1_combout $end
$var wire 1 T" inst8|Equal1~2_combout $end
$var wire 1 U" inst8|vector_temporal[0]~0_combout $end
$var wire 1 V" inst8|indice[1]~0_combout $end
$var wire 1 W" inst8|indice[1]~1_combout $end
$var wire 1 X" inst8|indice[2]~2_combout $end
$var wire 1 Y" inst8|Mux0~0_combout $end
$var wire 1 Z" inst8|Equal1~3_combout $end
$var wire 1 [" inst8|salida_variable~0_combout $end
$var wire 1 \" inst6|Equal0~2_combout $end
$var wire 1 ]" inst6|Equal0~3_combout $end
$var wire 1 ^" inst6|contador_reg~4_combout $end
$var wire 1 _" inst6|Add1~0_combout $end
$var wire 1 `" inst6|contador_reg~5_combout $end
$var wire 1 a" inst6|Equal1~6_combout $end
$var wire 1 b" inst6|Equal1~4_combout $end
$var wire 1 c" inst6|contador_reg~6_combout $end
$var wire 1 d" inst6|contador_reg~7_combout $end
$var wire 1 e" inst6|Equal1~7_combout $end
$var wire 1 f" inst6|salida_variable~0_combout $end
$var wire 1 g" inst9|salida[3]~1_combout $end
$var wire 1 h" inst9|salida[3]~2_combout $end
$var wire 1 i" inst12|cuenta[1]~4_combout $end
$var wire 1 j" inst12|cuenta[1]~reg0_q $end
$var wire 1 k" inst9|Equal4~0_combout $end
$var wire 1 l" inst9|salida[2]~3_combout $end
$var wire 1 m" inst9|salida[2]~4_combout $end
$var wire 1 n" inst9|salida[1]~5_combout $end
$var wire 1 o" inst9|salida[1]~6_combout $end
$var wire 1 p" inst9|salida[0]~7_combout $end
$var wire 1 q" inst9|salida[0]~8_combout $end
$var wire 1 r" inst6|vector_temporal [3] $end
$var wire 1 s" inst6|vector_temporal [2] $end
$var wire 1 t" inst6|vector_temporal [1] $end
$var wire 1 u" inst6|vector_temporal [0] $end
$var wire 1 v" inst6|salida_variable [3] $end
$var wire 1 w" inst6|salida_variable [2] $end
$var wire 1 x" inst6|salida_variable [1] $end
$var wire 1 y" inst6|salida_variable [0] $end
$var wire 1 z" inst6|indice [30] $end
$var wire 1 {" inst6|indice [29] $end
$var wire 1 |" inst6|indice [28] $end
$var wire 1 }" inst6|indice [27] $end
$var wire 1 ~" inst6|indice [26] $end
$var wire 1 !# inst6|indice [25] $end
$var wire 1 "# inst6|indice [24] $end
$var wire 1 ## inst6|indice [23] $end
$var wire 1 $# inst6|indice [22] $end
$var wire 1 %# inst6|indice [21] $end
$var wire 1 &# inst6|indice [20] $end
$var wire 1 '# inst6|indice [19] $end
$var wire 1 (# inst6|indice [18] $end
$var wire 1 )# inst6|indice [17] $end
$var wire 1 *# inst6|indice [16] $end
$var wire 1 +# inst6|indice [15] $end
$var wire 1 ,# inst6|indice [14] $end
$var wire 1 -# inst6|indice [13] $end
$var wire 1 .# inst6|indice [12] $end
$var wire 1 /# inst6|indice [11] $end
$var wire 1 0# inst6|indice [10] $end
$var wire 1 1# inst6|indice [9] $end
$var wire 1 2# inst6|indice [8] $end
$var wire 1 3# inst6|indice [7] $end
$var wire 1 4# inst6|indice [6] $end
$var wire 1 5# inst6|indice [5] $end
$var wire 1 6# inst6|indice [4] $end
$var wire 1 7# inst6|indice [3] $end
$var wire 1 8# inst6|indice [2] $end
$var wire 1 9# inst6|indice [1] $end
$var wire 1 :# inst6|indice [0] $end
$var wire 1 ;# inst6|contador_reg [3] $end
$var wire 1 <# inst6|contador_reg [2] $end
$var wire 1 =# inst6|contador_reg [1] $end
$var wire 1 ># inst6|contador_reg [0] $end
$var wire 1 ?# inst10|Salida_Tiempo3 [0] $end
$var wire 1 @# inst10|Salida_Tiempo3 [1] $end
$var wire 1 A# inst10|Salida_Tiempo3 [2] $end
$var wire 1 B# inst10|Salida_Tiempo3 [3] $end
$var wire 1 C# inst10|Salida_Tiempo2 [0] $end
$var wire 1 D# inst10|Salida_Tiempo2 [1] $end
$var wire 1 E# inst10|Salida_Tiempo2 [2] $end
$var wire 1 F# inst10|Salida_Tiempo2 [3] $end
$var wire 1 G# inst10|Salida_Tiempo1 [0] $end
$var wire 1 H# inst10|Salida_Tiempo1 [1] $end
$var wire 1 I# inst10|Salida_Tiempo1 [2] $end
$var wire 1 J# inst10|Salida_Tiempo1 [3] $end
$var wire 1 K# inst8|indice [30] $end
$var wire 1 L# inst8|indice [29] $end
$var wire 1 M# inst8|indice [28] $end
$var wire 1 N# inst8|indice [27] $end
$var wire 1 O# inst8|indice [26] $end
$var wire 1 P# inst8|indice [25] $end
$var wire 1 Q# inst8|indice [24] $end
$var wire 1 R# inst8|indice [23] $end
$var wire 1 S# inst8|indice [22] $end
$var wire 1 T# inst8|indice [21] $end
$var wire 1 U# inst8|indice [20] $end
$var wire 1 V# inst8|indice [19] $end
$var wire 1 W# inst8|indice [18] $end
$var wire 1 X# inst8|indice [17] $end
$var wire 1 Y# inst8|indice [16] $end
$var wire 1 Z# inst8|indice [15] $end
$var wire 1 [# inst8|indice [14] $end
$var wire 1 \# inst8|indice [13] $end
$var wire 1 ]# inst8|indice [12] $end
$var wire 1 ^# inst8|indice [11] $end
$var wire 1 _# inst8|indice [10] $end
$var wire 1 `# inst8|indice [9] $end
$var wire 1 a# inst8|indice [8] $end
$var wire 1 b# inst8|indice [7] $end
$var wire 1 c# inst8|indice [6] $end
$var wire 1 d# inst8|indice [5] $end
$var wire 1 e# inst8|indice [4] $end
$var wire 1 f# inst8|indice [3] $end
$var wire 1 g# inst8|indice [2] $end
$var wire 1 h# inst8|indice [1] $end
$var wire 1 i# inst8|indice [0] $end
$var wire 1 j# inst8|contador_reg [3] $end
$var wire 1 k# inst8|contador_reg [2] $end
$var wire 1 l# inst8|contador_reg [1] $end
$var wire 1 m# inst8|contador_reg [0] $end
$var wire 1 n# inst7|vector_temporal [3] $end
$var wire 1 o# inst7|vector_temporal [2] $end
$var wire 1 p# inst7|vector_temporal [1] $end
$var wire 1 q# inst7|vector_temporal [0] $end
$var wire 1 r# inst8|vector_temporal [3] $end
$var wire 1 s# inst8|vector_temporal [2] $end
$var wire 1 t# inst8|vector_temporal [1] $end
$var wire 1 u# inst8|vector_temporal [0] $end
$var wire 1 v# inst7|salida_variable [3] $end
$var wire 1 w# inst7|salida_variable [2] $end
$var wire 1 x# inst7|salida_variable [1] $end
$var wire 1 y# inst7|salida_variable [0] $end
$var wire 1 z# inst7|contador_reg [3] $end
$var wire 1 {# inst7|contador_reg [2] $end
$var wire 1 |# inst7|contador_reg [1] $end
$var wire 1 }# inst7|contador_reg [0] $end
$var wire 1 ~# inst8|salida_variable [3] $end
$var wire 1 !$ inst8|salida_variable [2] $end
$var wire 1 "$ inst8|salida_variable [1] $end
$var wire 1 #$ inst8|salida_variable [0] $end
$var wire 1 $$ inst7|indice [30] $end
$var wire 1 %$ inst7|indice [29] $end
$var wire 1 &$ inst7|indice [28] $end
$var wire 1 '$ inst7|indice [27] $end
$var wire 1 ($ inst7|indice [26] $end
$var wire 1 )$ inst7|indice [25] $end
$var wire 1 *$ inst7|indice [24] $end
$var wire 1 +$ inst7|indice [23] $end
$var wire 1 ,$ inst7|indice [22] $end
$var wire 1 -$ inst7|indice [21] $end
$var wire 1 .$ inst7|indice [20] $end
$var wire 1 /$ inst7|indice [19] $end
$var wire 1 0$ inst7|indice [18] $end
$var wire 1 1$ inst7|indice [17] $end
$var wire 1 2$ inst7|indice [16] $end
$var wire 1 3$ inst7|indice [15] $end
$var wire 1 4$ inst7|indice [14] $end
$var wire 1 5$ inst7|indice [13] $end
$var wire 1 6$ inst7|indice [12] $end
$var wire 1 7$ inst7|indice [11] $end
$var wire 1 8$ inst7|indice [10] $end
$var wire 1 9$ inst7|indice [9] $end
$var wire 1 :$ inst7|indice [8] $end
$var wire 1 ;$ inst7|indice [7] $end
$var wire 1 <$ inst7|indice [6] $end
$var wire 1 =$ inst7|indice [5] $end
$var wire 1 >$ inst7|indice [4] $end
$var wire 1 ?$ inst7|indice [3] $end
$var wire 1 @$ inst7|indice [2] $end
$var wire 1 A$ inst7|indice [1] $end
$var wire 1 B$ inst7|indice [0] $end
$upscope $end
$upscope $end
$enddefinitions $end
#0
$dumpvars
0!
0"
0#
0$
1%
0&
0'
0G
0F
0E
0D
0C
0B
0A
0@
0?
0>
0=
0<
0;
0:
09
08
07
06
05
04
03
02
01
00
0/
0.
0-
0,
0+
0*
0)
0(
1O
0N
0M
0L
0K
0J
0I
0H
0S
0R
0Q
0P
xT
0U
1V
xW
1X
1Y
1Z
1[
1\
0]
1^
0_
1`
0a
1b
0c
0d
0e
0f
0g
0h
0i
1j
0k
1l
0m
0n
0o
0p
0q
0r
0s
0t
0u
0v
0w
0x
0y
0z
0{
0|
0}
0~
1!!
0"!
0#!
1$!
1%!
0&!
0'!
0(!
0)!
0*!
0+!
0,!
0-!
0.!
0/!
00!
01!
02!
03!
04!
05!
06!
07!
08!
09!
0:!
0;!
0<!
0=!
0>!
0?!
0@!
0A!
0B!
0C!
0D!
0E!
0F!
0G!
0H!
0I!
0J!
0K!
0L!
0M!
0N!
0O!
0P!
0Q!
0R!
1S!
0T!
0U!
0V!
0W!
0X!
0Y!
1Z!
0[!
1\!
0]!
0^!
1_!
1`!
0a!
1b!
0c!
0d!
0e!
0f!
0g!
1h!
1i!
1j!
0k!
1l!
0m!
0n!
0o!
0p!
0q!
0r!
0s!
0t!
0u!
0v!
0w!
0x!
1y!
0z!
0{!
0|!
0}!
0~!
1!"
0""
0#"
0$"
0%"
0&"
0'"
0("
1)"
0*"
0+"
1,"
0-"
0."
1/"
00"
01"
02"
03"
14"
05"
06"
17"
08"
09"
0:"
0;"
0<"
0="
0>"
0?"
0@"
1A"
0B"
0C"
0D"
0E"
0F"
1G"
0H"
0I"
0J"
0K"
1L"
0M"
1N"
1O"
0P"
0Q"
0R"
1S"
1T"
0U"
0V"
0W"
0X"
1Y"
1Z"
0["
0\"
0]"
0^"
0_"
0`"
1a"
0b"
0c"
0d"
1e"
0f"
1g"
0h"
0i"
0j"
1k"
0l"
0m"
0n"
0o"
0p"
0q"
0u"
zt"
zs"
zr"
0y"
zx"
zw"
zv"
0:#
09#
08#
07#
z6#
z5#
z4#
z3#
z2#
z1#
z0#
z/#
z.#
z-#
z,#
z+#
z*#
z)#
z(#
z'#
z&#
z%#
z$#
z##
z"#
z!#
z~"
z}"
z|"
z{"
zz"
0>#
0=#
0<#
0;#
0B#
0A#
0@#
0?#
0F#
0E#
0D#
0C#
0J#
0I#
0H#
0G#
0i#
0h#
0g#
0f#
ze#
zd#
zc#
zb#
za#
z`#
z_#
z^#
z]#
z\#
z[#
zZ#
zY#
zX#
zW#
zV#
zU#
zT#
zS#
zR#
zQ#
zP#
zO#
zN#
zM#
zL#
zK#
0m#
0l#
0k#
0j#
0q#
zp#
zo#
zn#
0u#
zt#
zs#
zr#
0y#
zx#
zw#
zv#
0}#
0|#
0{#
0z#
0#$
z"$
z!$
z~#
0B$
0A$
0@$
0?$
z>$
z=$
z<$
z;$
z:$
z9$
z8$
z7$
z6$
z5$
z4$
z3$
z2$
z1$
z0$
z/$
z.$
z-$
z,$
z+$
z*$
z)$
z($
z'$
z&$
z%$
z$$
$end
#5000
1!
1'
1(!
1'!
1+!
1*!
0T
1a!
1c!
0b!
1\"
1d!
1R!
1N
#10000
0!
0'
0(!
0'!
0+!
0*!
1T
#15000
1!
1'
1(!
1'!
1+!
1*!
0T
1e!
0c!
1_
0\"
0d!
1Q!
0R!
1M
0N
#20000
0!
0'
0(!
0'!
0+!
0*!
1T
#25000
1!
1'
1(!
1'!
1+!
1*!
0T
1f!
0e!
1g!
0`!
0_
1P!
0Q!
1L
0M
#30000
0!
0'
0(!
0'!
0+!
0*!
1T
#35000
1!
1(!
1+!
0T
#40000
0!
0(!
0+!
1T
#45000
1&
1!
1&!
1(!
1)!
1+!
0T
1]!
1[!
1M"
0l!
0j!
0^
1]
0\!
1U"
0T"
0O"
1J!
1F
1k!
0Z"
0U"
1P"
1H!
1D
#50000
0&
0!
0&!
0(!
0)!
0+!
1T
#55000
1&
1!
1&!
1(!
1)!
1+!
0T
0]!
1X!
1m#
0N"
1l!
1j!
0i!
0]
0S"
0P"
1q
0J!
1G!
1I!
0F
1C
1E
0k!
0H!
0D
#60000
0&
0!
0&!
0(!
0)!
0+!
1T
#65000
1&
1!
1&!
1(!
1)!
1+!
0T
1Y!
0X!
0m#
1l#
0j!
1i!
0h!
0Z!
1S"
1P"
0G!
0I!
1F!
0C
0E
1B
1k!
1H!
1D
#70000
0&
0!
0&!
0(!
0)!
0+!
1T
#75000
1!
1(!
1+!
0T
1m#
0S"
1Q"
0P"
0q
1R"
#80000
0!
0(!
0+!
1T
#85000
1!
1(!
1+!
0T
1k#
0m#
0l#
0R"
1r
0Q"
1P"
1R"
0r
#90000
0!
0(!
0+!
1T
#95000
1!
1(!
1+!
0T
1m#
0P"
1q
#100000
0!
0(!
0+!
1T
#105000
1!
1(!
1+!
0T
0m#
1l#
1P"
#110000
0!
0(!
0+!
1T
#115000
1!
1(!
1+!
0T
1m#
1Q"
0P"
0q
0R"
1r
#120000
0!
0(!
0+!
1T
#125000
1!
1(!
1+!
0T
0k#
0m#
1j#
0l#
1S"
1R"
0Q"
1P"
1T"
0R"
#130000
0!
0(!
0+!
1T
#135000
1!
1(!
1+!
0T
1m#
0S"
0P"
1q
0T"
#140000
0!
0(!
0+!
1T
#145000
1!
1(!
1+!
0T
0m#
1l#
1S"
1P"
1T"
#150000
0!
0(!
0+!
1T
#155000
1!
1(!
1+!
0T
1m#
0S"
1Q"
0P"
0q
0T"
1R"
#160000
0!
0(!
0+!
1T
#165000
1!
1(!
1+!
0T
1k#
0m#
0l#
0R"
0r
0Q"
1P"
1R"
1r
#170000
0!
0(!
0+!
1T
#175000
1!
1(!
1+!
0T
1m#
0P"
1q
#180000
0!
0(!
0+!
1T
#185000
1!
1(!
1+!
0T
0m#
1l#
1P"
#190000
0!
0(!
0+!
1T
#195000
1!
1(!
1+!
0T
1m#
1Q"
0P"
0q
0R"
0r
#200000
0!
0(!
0+!
1T
#205000
1!
1(!
1+!
0T
0k#
0m#
0j#
0l#
1S"
1R"
0Q"
1P"
0R"
#210000
0!
0(!
0+!
1T
#215000
1!
1(!
1+!
0T
1m#
0S"
0P"
1q
#220000
0!
0(!
0+!
1T
#225000
1!
1(!
1+!
0T
0m#
1l#
1S"
1P"
#230000
0!
0(!
0+!
1T
#235000
1!
1(!
1+!
0T
1m#
0S"
1Q"
0P"
0q
1R"
#240000
0!
0(!
0+!
1T
#245000
1!
1(!
1+!
0T
1k#
0m#
0l#
0R"
1r
0Q"
1P"
1R"
0r
#250000
0!
0(!
0+!
1T
#255000
1!
1(!
1+!
0T
1m#
0P"
1q
#260000
0!
0(!
0+!
1T
#265000
1!
1(!
1+!
0T
0m#
1l#
1P"
#270000
0!
0(!
0+!
1T
#275000
1!
1(!
1+!
0T
1m#
1Q"
0P"
0q
0R"
1r
#280000
0!
0(!
0+!
1T
#285000
1!
1(!
1+!
0T
0k#
0m#
1j#
0l#
1S"
1R"
0Q"
1P"
1T"
0R"
#290000
0!
0(!
0+!
1T
#295000
1!
1(!
1+!
0T
1m#
0S"
0P"
1q
0T"
#300000
0!
0(!
0+!
1T
#305000
1!
1(!
1+!
0T
0m#
1l#
1S"
1P"
1T"
#310000
0!
0(!
0+!
1T
#315000
1!
1(!
1+!
0T
1m#
0S"
1Q"
0P"
0q
0T"
1R"
#320000
0!
0(!
0+!
1T
#325000
1!
1(!
1+!
0T
1k#
0m#
0l#
0R"
0r
0Q"
1P"
1R"
1r
#330000
0!
0(!
0+!
1T
#335000
1!
1(!
1+!
0T
1m#
0P"
1q
#340000
0!
0(!
0+!
1T
#345000
1!
1(!
1+!
0T
0m#
1l#
1P"
#350000
0!
0(!
0+!
1T
#355000
1!
1(!
1+!
0T
1m#
1Q"
0P"
0q
0R"
0r
#360000
0!
0(!
0+!
1T
#365000
1!
1(!
1+!
0T
0k#
0m#
0j#
0l#
1S"
1R"
0Q"
1P"
0R"
#370000
0!
0(!
0+!
1T
#375000
1!
1(!
1+!
0T
1m#
0S"
0P"
1q
#380000
0!
0(!
0+!
1T
#385000
1!
1(!
1+!
0T
0m#
1l#
1S"
1P"
#390000
0!
0(!
0+!
1T
#395000
1!
1(!
1+!
0T
1m#
0S"
1Q"
0P"
0q
1R"
#400000
0!
0(!
0+!
1T
#405000
1!
1(!
1+!
0T
1k#
0m#
0l#
0R"
1r
0Q"
1P"
1R"
0r
#410000
0!
0(!
0+!
1T
#415000
1!
1(!
1+!
0T
1m#
0P"
1q
#420000
0!
0(!
0+!
1T
#425000
1!
1(!
1+!
0T
0m#
1l#
1P"
#430000
0!
0(!
0+!
1T
#435000
1!
1(!
1+!
0T
1m#
1Q"
0P"
0q
0R"
1r
#440000
0!
0(!
0+!
1T
#445000
1!
1(!
1+!
0T
0k#
0m#
1j#
0l#
1S"
1R"
0Q"
1P"
1T"
0R"
#450000
0!
0(!
0+!
1T
#455000
1!
1(!
1+!
0T
1m#
0S"
0P"
1q
0T"
#460000
0!
0(!
0+!
1T
#465000
1!
1(!
1+!
0T
0m#
1l#
1S"
1P"
1T"
#470000
0!
0(!
0+!
1T
#475000
1!
1(!
1+!
0T
1m#
0S"
1Q"
0P"
0q
0T"
1R"
#480000
0!
0(!
0+!
1T
#485000
1!
1(!
1+!
0T
1k#
0m#
0l#
0R"
0r
0Q"
1P"
1R"
1r
#490000
0!
0(!
0+!
1T
#495000
1!
1(!
1+!
0T
1m#
0P"
1q
#500000
0!
0(!
0+!
1T
#505000
1!
1(!
1+!
0T
0m#
1l#
1P"
#510000
0!
0(!
0+!
1T
#515000
1!
1(!
1+!
0T
1m#
1Q"
0P"
0q
0R"
0r
#520000
0!
0(!
0+!
1T
#525000
1!
1(!
1+!
0T
0k#
0m#
0j#
0l#
1S"
1R"
0Q"
1P"
0R"
#530000
0!
0(!
0+!
1T
#535000
1!
1(!
1+!
0T
1m#
0S"
0P"
1q
#540000
0!
0(!
0+!
1T
#545000
1!
1(!
1+!
0T
0m#
1l#
1S"
1P"
#550000
0!
0(!
0+!
1T
#555000
1!
1(!
1+!
0T
1m#
0S"
1Q"
0P"
0q
1R"
#560000
0!
0(!
0+!
1T
#565000
1!
1(!
1+!
0T
1k#
0m#
0l#
0R"
1r
0Q"
1P"
1R"
0r
#570000
0!
0(!
0+!
1T
#575000
1!
1(!
1+!
0T
1m#
0P"
1q
#580000
0!
0(!
0+!
1T
